{
    "javascript": {
        "external": [
            "node_modules/angular/angular.js",
            "node_modules/angular-ui-router/release/angular-ui-router.js",
            "node_modules/angular-ui-bootstrap/dist/ui-bootstrap-tpls.js",
            "node_modules/ng-stomp/dist/ng-stomp.standalone.min.js",
            "node_modules/lodash/lodash.min.js"
        ],
        "internal": [
            "admin/**/*.js",
            "common/*.js",
            "common/**/*.js",
            "m/**/*.js"
        ],
        "templates": [
            "templates.js"
        ]
    },
    "css": [
        "node_modules/bootstrap/dist/css/bootstrap.min.css",
        "main.css"
    ],
    "fonts": [
        "node_modules/bootstrap/dist/fonts/*.*"
    ],
    "templates": [
        "**/*.html",
        "!index.html",
        "!node_modules/**/*.html"
    ],
    "node_modules": [
        "node_modules/**"
    ]
}
